Method;Job;AnalyzeLaunchVariance;EvaluateOverhead;MaxAbsoluteError;MaxRelativeError;MinInvokeCount;MinIterationTime;OutlierMode;Affinity;EnvironmentVariables;Jit;Platform;PowerPlanMode;Runtime;AllowVeryLargeObjects;Concurrent;CpuGroups;Force;HeapAffinitizeMask;HeapCount;NoAffinitize;RetainVm;Server;Arguments;BuildConfiguration;Clock;EngineFactory;NuGetReferences;Toolchain;IsMutator;InvocationCount;IterationCount;IterationTime;LaunchCount;MaxIterationCount;MaxWarmupIterationCount;MemoryRandomization;MinIterationCount;MinWarmupIterationCount;RunStrategy;UnrollFactor;WarmupCount;iterations;Mean;Error;StdDev;Gen 0;Gen 1;Gen 2;Allocated;Allocated native memory;Native memory leak
TestBitmapDrawer;ShortRun;False;Default;Default;Default;Default;Default;Default;111111111111;Empty;RyuJit;X64;8c5e7fda-e8bf-4a96-9a85-a6e23a8c635c;.NET 5.0;False;True;False;True;Default;Default;False;False;False;Default;Default;Default;Default;Default;Default;Default;1;3;Default;1;Default;Default;Default;Default;Default;Default;16;3;1000;"45,396,988.9 ns";"15,352,429.18 ns";"841,518.45 ns";0.0000;0.0000;0.0000;"176,711 B";"13,183,860 B";"11,615,860 B"
TestCaching;ShortRun;False;Default;Default;Default;Default;Default;Default;111111111111;Empty;RyuJit;X64;8c5e7fda-e8bf-4a96-9a85-a6e23a8c635c;.NET 5.0;False;True;False;True;Default;Default;False;False;False;Default;Default;Default;Default;Default;Default;Default;1;3;Default;1;Default;Default;Default;Default;Default;Default;16;3;1000;"182,497.0 ns";"180,743.25 ns";"9,907.15 ns";26.1230;6.3477;0.0000;"166,240 B";0 B;0 B
TestStaticVariable;ShortRun;False;Default;Default;Default;Default;Default;Default;111111111111;Empty;RyuJit;X64;8c5e7fda-e8bf-4a96-9a85-a6e23a8c635c;.NET 5.0;False;True;False;True;Default;Default;False;False;False;Default;Default;Default;Default;Default;Default;Default;1;3;Default;1;Default;Default;Default;Default;Default;Default;16;3;1000;"6,132.5 ns";"2,700.74 ns";148.04 ns;3.8147;0.0000;0.0000;"24,000 B";0 B;0 B
TestUnmanagedMemory;ShortRun;False;Default;Default;Default;Default;Default;Default;111111111111;Empty;RyuJit;X64;8c5e7fda-e8bf-4a96-9a85-a6e23a8c635c;.NET 5.0;False;True;False;True;Default;Default;False;False;False;Default;Default;Default;Default;Default;Default;Default;1;3;Default;1;Default;Default;Default;Default;Default;Default;16;3;1000;"51,153.7 ns";"16,383.68 ns";898.04 ns;3.7842;0.0610;0.0000;"24,000 B";"10,000 B";"10,000 B"
TestBoxing;ShortRun;False;Default;Default;Default;Default;Default;Default;111111111111;Empty;RyuJit;X64;8c5e7fda-e8bf-4a96-9a85-a6e23a8c635c;.NET 5.0;False;True;False;True;Default;Default;False;False;False;Default;Default;Default;Default;Default;Default;Default;1;3;Default;1;Default;Default;Default;Default;Default;Default;16;3;1000;244.0 ns;17.07 ns;0.94 ns;0.0000;0.0000;0.0000;0 B;0 B;0 B
TestUnboxing;ShortRun;False;Default;Default;Default;Default;Default;Default;111111111111;Empty;RyuJit;X64;8c5e7fda-e8bf-4a96-9a85-a6e23a8c635c;.NET 5.0;False;True;False;True;Default;Default;False;False;False;Default;Default;Default;Default;Default;Default;Default;1;3;Default;1;Default;Default;Default;Default;Default;Default;16;3;1000;"2,989.9 ns";606.29 ns;33.23 ns;3.8223;0.0000;0.0000;"24,000 B";0 B;0 B
TestEventSubscription;ShortRun;False;Default;Default;Default;Default;Default;Default;111111111111;Empty;RyuJit;X64;8c5e7fda-e8bf-4a96-9a85-a6e23a8c635c;.NET 5.0;False;True;False;True;Default;Default;False;False;False;Default;Default;Default;Default;Default;Default;Default;1;3;Default;1;Default;Default;Default;Default;Default;Default;16;3;1000;"55,060.2 ns";"15,823.86 ns";867.36 ns;24.3530;0.1221;0.0000;"152,403 B";102 B;102 B
TestBitmapDrawer;ShortRun;False;Default;Default;Default;Default;Default;Default;111111111111;Empty;RyuJit;X64;8c5e7fda-e8bf-4a96-9a85-a6e23a8c635c;.NET 5.0;False;True;False;True;Default;Default;False;False;False;Default;Default;Default;Default;Default;Default;Default;1;3;Default;1;Default;Default;Default;Default;Default;Default;16;3;5000;"215,679,455.6 ns";"199,209,558.12 ns";"10,919,348.08 ns";0.0000;0.0000;0.0000;"880,000 B";"65,919,440 B";"58,079,440 B"
TestCaching;ShortRun;False;Default;Default;Default;Default;Default;Default;111111111111;Empty;RyuJit;X64;8c5e7fda-e8bf-4a96-9a85-a6e23a8c635c;.NET 5.0;False;True;False;True;Default;Default;False;False;False;Default;Default;Default;Default;Default;Default;Default;1;3;Default;1;Default;Default;Default;Default;Default;Default;16;3;5000;"989,375.6 ns";"95,284.19 ns";"5,222.85 ns";89.8438;89.8438;89.8438;"771,448 B";0 B;0 B
TestStaticVariable;ShortRun;False;Default;Default;Default;Default;Default;Default;111111111111;Empty;RyuJit;X64;8c5e7fda-e8bf-4a96-9a85-a6e23a8c635c;.NET 5.0;False;True;False;True;Default;Default;False;False;False;Default;Default;Default;Default;Default;Default;Default;1;3;Default;1;Default;Default;Default;Default;Default;Default;16;3;5000;"26,691.5 ns";"1,508.28 ns";82.67 ns;19.1040;0.0000;0.0000;"120,000 B";0 B;0 B
TestUnmanagedMemory;ShortRun;False;Default;Default;Default;Default;Default;Default;111111111111;Empty;RyuJit;X64;8c5e7fda-e8bf-4a96-9a85-a6e23a8c635c;.NET 5.0;False;True;False;True;Default;Default;False;False;False;Default;Default;Default;Default;Default;Default;Default;1;3;Default;1;Default;Default;Default;Default;Default;Default;16;3;5000;"239,976.4 ns";"11,350.95 ns";622.18 ns;19.0430;0.0000;0.0000;"120,000 B";"50,000 B";"50,000 B"
TestBoxing;ShortRun;False;Default;Default;Default;Default;Default;Default;111111111111;Empty;RyuJit;X64;8c5e7fda-e8bf-4a96-9a85-a6e23a8c635c;.NET 5.0;False;True;False;True;Default;Default;False;False;False;Default;Default;Default;Default;Default;Default;Default;1;3;Default;1;Default;Default;Default;Default;Default;Default;16;3;5000;"1,227.7 ns";283.95 ns;15.56 ns;0.0000;0.0000;0.0000;0 B;0 B;0 B
TestUnboxing;ShortRun;False;Default;Default;Default;Default;Default;Default;111111111111;Empty;RyuJit;X64;8c5e7fda-e8bf-4a96-9a85-a6e23a8c635c;.NET 5.0;False;True;False;True;Default;Default;False;False;False;Default;Default;Default;Default;Default;Default;Default;1;3;Default;1;Default;Default;Default;Default;Default;Default;16;3;5000;"15,434.8 ns";"7,143.18 ns";391.54 ns;19.1193;0.0000;0.0000;"120,000 B";0 B;0 B
TestEventSubscription;ShortRun;False;Default;Default;Default;Default;Default;Default;111111111111;Empty;RyuJit;X64;8c5e7fda-e8bf-4a96-9a85-a6e23a8c635c;.NET 5.0;False;True;False;True;Default;Default;False;False;False;Default;Default;Default;Default;Default;Default;Default;1;3;Default;1;Default;Default;Default;Default;Default;Default;16;3;5000;"240,250.5 ns";"88,479.45 ns";"4,849.86 ns";121.3379;0.2441;0.0000;"760,422 B";114 B;114 B
TestBitmapDrawer;ShortRun;False;Default;Default;Default;Default;Default;Default;111111111111;Empty;RyuJit;X64;8c5e7fda-e8bf-4a96-9a85-a6e23a8c635c;.NET 5.0;False;True;False;True;Default;Default;False;False;False;Default;Default;Default;Default;Default;Default;Default;1;3;Default;1;Default;Default;Default;Default;Default;Default;16;3;10000;"441,190,733.3 ns";"46,430,761.00 ns";"2,545,026.68 ns";0.0000;0.0000;0.0000;"1,760,144 B";"131,839,440 B";"116,159,440 B"
TestCaching;ShortRun;False;Default;Default;Default;Default;Default;Default;111111111111;Empty;RyuJit;X64;8c5e7fda-e8bf-4a96-9a85-a6e23a8c635c;.NET 5.0;False;True;False;True;Default;Default;False;False;False;Default;Default;Default;Default;Default;Default;Default;1;3;Default;1;Default;Default;Default;Default;Default;Default;16;3;10000;"1,905,629.0 ns";"202,601.09 ns";"11,105.25 ns";220.7031;220.7031;220.7031;"1,582,032 B";0 B;0 B
TestStaticVariable;ShortRun;False;Default;Default;Default;Default;Default;Default;111111111111;Empty;RyuJit;X64;8c5e7fda-e8bf-4a96-9a85-a6e23a8c635c;.NET 5.0;False;True;False;True;Default;Default;False;False;False;Default;Default;Default;Default;Default;Default;Default;1;3;Default;1;Default;Default;Default;Default;Default;Default;16;3;10000;"54,827.5 ns";"4,341.75 ns";237.99 ns;38.2080;0.0000;0.0000;"240,000 B";0 B;0 B
TestUnmanagedMemory;ShortRun;False;Default;Default;Default;Default;Default;Default;111111111111;Empty;RyuJit;X64;8c5e7fda-e8bf-4a96-9a85-a6e23a8c635c;.NET 5.0;False;True;False;True;Default;Default;False;False;False;Default;Default;Default;Default;Default;Default;Default;1;3;Default;1;Default;Default;Default;Default;Default;Default;16;3;10000;"507,740.0 ns";"220,471.91 ns";"12,084.81 ns";38.0859;0.0000;0.0000;"240,013 B";"100,000 B";"100,000 B"
TestBoxing;ShortRun;False;Default;Default;Default;Default;Default;Default;111111111111;Empty;RyuJit;X64;8c5e7fda-e8bf-4a96-9a85-a6e23a8c635c;.NET 5.0;False;True;False;True;Default;Default;False;False;False;Default;Default;Default;Default;Default;Default;Default;1;3;Default;1;Default;Default;Default;Default;Default;Default;16;3;10000;"2,462.4 ns";215.28 ns;11.80 ns;0.0000;0.0000;0.0000;0 B;0 B;0 B
TestUnboxing;ShortRun;False;Default;Default;Default;Default;Default;Default;111111111111;Empty;RyuJit;X64;8c5e7fda-e8bf-4a96-9a85-a6e23a8c635c;.NET 5.0;False;True;False;True;Default;Default;False;False;False;Default;Default;Default;Default;Default;Default;Default;1;3;Default;1;Default;Default;Default;Default;Default;Default;16;3;10000;"32,019.0 ns";"39,828.40 ns";"2,183.13 ns";38.2080;0.0000;0.0000;"240,000 B";0 B;0 B
TestEventSubscription;ShortRun;False;Default;Default;Default;Default;Default;Default;111111111111;Empty;RyuJit;X64;8c5e7fda-e8bf-4a96-9a85-a6e23a8c635c;.NET 5.0;False;True;False;True;Default;Default;False;False;False;Default;Default;Default;Default;Default;Default;Default;1;3;Default;1;Default;Default;Default;Default;Default;Default;16;3;10000;"504,790.5 ns";"366,657.92 ns";"20,097.76 ns";242.6758;0.4883;0.0000;"1,520,418 B";111 B;111 B
