Method;Job;AnalyzeLaunchVariance;EvaluateOverhead;MaxAbsoluteError;MaxRelativeError;MinInvokeCount;MinIterationTime;OutlierMode;Affinity;EnvironmentVariables;Jit;Platform;PowerPlanMode;Runtime;AllowVeryLargeObjects;Concurrent;CpuGroups;Force;HeapAffinitizeMask;HeapCount;NoAffinitize;RetainVm;Server;Arguments;BuildConfiguration;Clock;EngineFactory;NuGetReferences;Toolchain;IsMutator;InvocationCount;IterationCount;IterationTime;LaunchCount;MaxIterationCount;MaxWarmupIterationCount;MemoryRandomization;MinIterationCount;MinWarmupIterationCount;RunStrategy;UnrollFactor;WarmupCount;iterations;Mean;Error;StdDev;Gen 0;Gen 1;Gen 2;Allocated;Allocated native memory;Native memory leak
TestBitmapDrawer;ShortRun;False;Default;Default;Default;Default;Default;Default;111111111111;Empty;RyuJit;X64;8c5e7fda-e8bf-4a96-9a85-a6e23a8c635c;.NET 5.0;False;True;False;True;Default;Default;False;False;False;Default;Default;Default;Default;Default;Default;Default;1;3;Default;1;Default;Default;Default;Default;Default;Default;16;3;1000;"44,212,905.6 ns";"21,285,370.40 ns";"1,166,722.98 ns";0.0000;0.0000;0.0000;"176,000 B";"13,183,860 B";"11,615,860 B"
TestCaching;ShortRun;False;Default;Default;Default;Default;Default;Default;111111111111;Empty;RyuJit;X64;8c5e7fda-e8bf-4a96-9a85-a6e23a8c635c;.NET 5.0;False;True;False;True;Default;Default;False;False;False;Default;Default;Default;Default;Default;Default;Default;1;3;Default;1;Default;Default;Default;Default;Default;Default;16;3;1000;"160,594.7 ns";"8,161.39 ns";447.35 ns;26.1230;6.3477;0.0000;"166,243 B";0 B;0 B
TestStaticVariable;ShortRun;False;Default;Default;Default;Default;Default;Default;111111111111;Empty;RyuJit;X64;8c5e7fda-e8bf-4a96-9a85-a6e23a8c635c;.NET 5.0;False;True;False;True;Default;Default;False;False;False;Default;Default;Default;Default;Default;Default;Default;1;3;Default;1;Default;Default;Default;Default;Default;Default;16;3;1000;"5,413.0 ns";"10,514.12 ns";576.31 ns;3.8223;0.0000;0.0000;"24,000 B";0 B;0 B
TestUnmanagedMemory;ShortRun;False;Default;Default;Default;Default;Default;Default;111111111111;Empty;RyuJit;X64;8c5e7fda-e8bf-4a96-9a85-a6e23a8c635c;.NET 5.0;False;True;False;True;Default;Default;False;False;False;Default;Default;Default;Default;Default;Default;Default;1;3;Default;1;Default;Default;Default;Default;Default;Default;16;3;1000;"70,084.0 ns";"3,177.05 ns";174.15 ns;3.7842;0.0000;0.0000;"24,002 B";"10,000 B";0 B
TestBoxing;ShortRun;False;Default;Default;Default;Default;Default;Default;111111111111;Empty;RyuJit;X64;8c5e7fda-e8bf-4a96-9a85-a6e23a8c635c;.NET 5.0;False;True;False;True;Default;Default;False;False;False;Default;Default;Default;Default;Default;Default;Default;1;3;Default;1;Default;Default;Default;Default;Default;Default;16;3;1000;242.9 ns;24.51 ns;1.34 ns;0.0000;0.0000;0.0000;0 B;0 B;0 B
TestUnboxing;ShortRun;False;Default;Default;Default;Default;Default;Default;111111111111;Empty;RyuJit;X64;8c5e7fda-e8bf-4a96-9a85-a6e23a8c635c;.NET 5.0;False;True;False;True;Default;Default;False;False;False;Default;Default;Default;Default;Default;Default;Default;1;3;Default;1;Default;Default;Default;Default;Default;Default;16;3;1000;"2,927.7 ns";826.46 ns;45.30 ns;3.8223;0.0000;0.0000;"24,000 B";0 B;0 B
TestEventSubscription;ShortRun;False;Default;Default;Default;Default;Default;Default;111111111111;Empty;RyuJit;X64;8c5e7fda-e8bf-4a96-9a85-a6e23a8c635c;.NET 5.0;False;True;False;True;Default;Default;False;False;False;Default;Default;Default;Default;Default;Default;Default;1;3;Default;1;Default;Default;Default;Default;Default;Default;16;3;1000;"829,821.1 ns";"1,674,661.62 ns";"91,793.85 ns";27.8320;10.2539;0.4883;"169,146 B";109 B;109 B
TestBitmapDrawer;ShortRun;False;Default;Default;Default;Default;Default;Default;111111111111;Empty;RyuJit;X64;8c5e7fda-e8bf-4a96-9a85-a6e23a8c635c;.NET 5.0;False;True;False;True;Default;Default;False;False;False;Default;Default;Default;Default;Default;Default;Default;1;3;Default;1;Default;Default;Default;Default;Default;Default;16;3;5000;"212,942,544.4 ns";"54,024,381.73 ns";"2,961,258.66 ns";0.0000;0.0000;0.0000;"880,000 B";"65,919,440 B";"58,079,440 B"
TestCaching;ShortRun;False;Default;Default;Default;Default;Default;Default;111111111111;Empty;RyuJit;X64;8c5e7fda-e8bf-4a96-9a85-a6e23a8c635c;.NET 5.0;False;True;False;True;Default;Default;False;False;False;Default;Default;Default;Default;Default;Default;Default;1;3;Default;1;Default;Default;Default;Default;Default;Default;16;3;5000;"980,336.9 ns";"88,836.87 ns";"4,869.45 ns";90.8203;90.8203;90.8203;"771,448 B";0 B;0 B
TestStaticVariable;ShortRun;False;Default;Default;Default;Default;Default;Default;111111111111;Empty;RyuJit;X64;8c5e7fda-e8bf-4a96-9a85-a6e23a8c635c;.NET 5.0;False;True;False;True;Default;Default;False;False;False;Default;Default;Default;Default;Default;Default;Default;1;3;Default;1;Default;Default;Default;Default;Default;Default;16;3;5000;"27,262.9 ns";"10,032.88 ns";549.94 ns;19.1040;0.0000;0.0000;"120,000 B";0 B;0 B
TestUnmanagedMemory;ShortRun;False;Default;Default;Default;Default;Default;Default;111111111111;Empty;RyuJit;X64;8c5e7fda-e8bf-4a96-9a85-a6e23a8c635c;.NET 5.0;False;True;False;True;Default;Default;False;False;False;Default;Default;Default;Default;Default;Default;Default;1;3;Default;1;Default;Default;Default;Default;Default;Default;16;3;5000;"376,828.4 ns";"107,275.11 ns";"5,880.11 ns";19.0430;0.0000;0.0000;"120,000 B";"50,000 B";0 B
TestBoxing;ShortRun;False;Default;Default;Default;Default;Default;Default;111111111111;Empty;RyuJit;X64;8c5e7fda-e8bf-4a96-9a85-a6e23a8c635c;.NET 5.0;False;True;False;True;Default;Default;False;False;False;Default;Default;Default;Default;Default;Default;Default;1;3;Default;1;Default;Default;Default;Default;Default;Default;16;3;5000;"1,224.1 ns";82.77 ns;4.54 ns;0.0000;0.0000;0.0000;0 B;0 B;0 B
TestUnboxing;ShortRun;False;Default;Default;Default;Default;Default;Default;111111111111;Empty;RyuJit;X64;8c5e7fda-e8bf-4a96-9a85-a6e23a8c635c;.NET 5.0;False;True;False;True;Default;Default;False;False;False;Default;Default;Default;Default;Default;Default;Default;1;3;Default;1;Default;Default;Default;Default;Default;Default;16;3;5000;"16,303.6 ns";"9,813.42 ns";537.91 ns;19.1040;0.0000;0.0000;"120,000 B";0 B;0 B
TestEventSubscription;ShortRun;False;Default;Default;Default;Default;Default;Default;111111111111;Empty;RyuJit;X64;8c5e7fda-e8bf-4a96-9a85-a6e23a8c635c;.NET 5.0;False;True;False;True;Default;Default;False;False;False;Default;Default;Default;Default;Default;Default;Default;1;3;Default;1;Default;Default;Default;Default;Default;Default;16;3;5000;"3,418,671.1 ns";"18,970,846.17 ns";"1,039,856.09 ns";140.6250;46.8750;0.0000;"891,784 B";118 B;118 B
TestBitmapDrawer;ShortRun;False;Default;Default;Default;Default;Default;Default;111111111111;Empty;RyuJit;X64;8c5e7fda-e8bf-4a96-9a85-a6e23a8c635c;.NET 5.0;False;True;False;True;Default;Default;False;False;False;Default;Default;Default;Default;Default;Default;Default;1;3;Default;1;Default;Default;Default;Default;Default;Default;16;3;10000;"432,676,600.0 ns";"391,860,206.24 ns";"21,479,180.18 ns";0.0000;0.0000;0.0000;"1,760,144 B";"131,839,440 B";"116,159,440 B"
TestCaching;ShortRun;False;Default;Default;Default;Default;Default;Default;111111111111;Empty;RyuJit;X64;8c5e7fda-e8bf-4a96-9a85-a6e23a8c635c;.NET 5.0;False;True;False;True;Default;Default;False;False;False;Default;Default;Default;Default;Default;Default;Default;1;3;Default;1;Default;Default;Default;Default;Default;Default;16;3;10000;"2,008,697.7 ns";"876,453.06 ns";"48,041.35 ns";220.7031;220.7031;220.7031;"1,582,032 B";0 B;0 B
TestStaticVariable;ShortRun;False;Default;Default;Default;Default;Default;Default;111111111111;Empty;RyuJit;X64;8c5e7fda-e8bf-4a96-9a85-a6e23a8c635c;.NET 5.0;False;True;False;True;Default;Default;False;False;False;Default;Default;Default;Default;Default;Default;Default;1;3;Default;1;Default;Default;Default;Default;Default;Default;16;3;10000;"54,877.0 ns";"18,151.04 ns";994.92 ns;38.2080;0.0000;0.0000;"240,000 B";0 B;0 B
TestUnmanagedMemory;ShortRun;False;Default;Default;Default;Default;Default;Default;111111111111;Empty;RyuJit;X64;8c5e7fda-e8bf-4a96-9a85-a6e23a8c635c;.NET 5.0;False;True;False;True;Default;Default;False;False;False;Default;Default;Default;Default;Default;Default;Default;1;3;Default;1;Default;Default;Default;Default;Default;Default;16;3;10000;"723,574.8 ns";"210,608.84 ns";"11,544.18 ns";38.0859;0.0000;0.0000;"240,000 B";"100,000 B";0 B
TestBoxing;ShortRun;False;Default;Default;Default;Default;Default;Default;111111111111;Empty;RyuJit;X64;8c5e7fda-e8bf-4a96-9a85-a6e23a8c635c;.NET 5.0;False;True;False;True;Default;Default;False;False;False;Default;Default;Default;Default;Default;Default;Default;1;3;Default;1;Default;Default;Default;Default;Default;Default;16;3;10000;"2,446.6 ns";"1,055.76 ns";57.87 ns;0.0000;0.0000;0.0000;0 B;0 B;0 B
TestUnboxing;ShortRun;False;Default;Default;Default;Default;Default;Default;111111111111;Empty;RyuJit;X64;8c5e7fda-e8bf-4a96-9a85-a6e23a8c635c;.NET 5.0;False;True;False;True;Default;Default;False;False;False;Default;Default;Default;Default;Default;Default;Default;1;3;Default;1;Default;Default;Default;Default;Default;Default;16;3;10000;"29,500.3 ns";"25,749.90 ns";"1,411.44 ns";38.2080;0.0000;0.0000;"240,000 B";0 B;0 B
TestEventSubscription;ShortRun;False;Default;Default;Default;Default;Default;Default;111111111111;Empty;RyuJit;X64;8c5e7fda-e8bf-4a96-9a85-a6e23a8c635c;.NET 5.0;False;True;False;True;Default;Default;False;False;False;Default;Default;Default;Default;Default;Default;Default;1;3;Default;1;Default;Default;Default;Default;Default;Default;16;3;10000;"6,850,904.8 ns";"40,196,379.33 ns";"2,203,299.19 ns";257.8125;85.9375;0.0000;"1,782,859 B";114 B;114 B
